{
  "project_info": {
    "project_number": "118175481443",
    "firebase_url": "https://app-x0f.firebaseio.com",
    "project_id": "app-x0f",
    "storage_bucket": "app-x0f.appspot.com"
  },
  "client": [
    {
      "client_info": {
        "mobilesdk_app_id": "1:118175481443:android:7cf89d7ba644a39fb80256",
        "android_client_info": {
          "package_name": "hendy.lailatul.appx0f"
        }
      },
      "oauth_client": [
        {
          "client_id": "118175481443-fg6rlba8nsgl06b19tfa8s4vdfdv0a7v.apps.googleusercontent.com",
          "client_type": 3
        }
      ],
      "api_key": [
        {
          "current_key": "AIzaSyCxG1runIkgHRJOKDFrByDZUTXZjAB1P0o"
        }
      ],
      "services": {
        "appinvite_service": {
          "other_platform_oauth_client": [
            {
              "client_id": "118175481443-fg6rlba8nsgl06b19tfa8s4vdfdv0a7v.apps.googleusercontent.com",
              "client_type": 3
            }
          ]
        }
      }
    }
  ],
  "configuration_version": "1"
}